tutorial.utf8
…
## Discrete traits:  D1 D2 
## The following traits have missing values: XNA1 
## These taxa were dropped from the tree: s51, s52, s53, s54, s55, s56, s57, s58, s59, s60 
## These taxa were dropped from the data: s41, s42, s43, s44, s45, s46, s47, s48, s49, s50 
## $phy 
## 
## Phylogenetic tree with 40 tips and 39 internal nodes.
## 
## Tip labels:
##  s1, s2, s3, s4, s5, s6, ...
## 
## Rooted; includes branch lengths.
## 
## $dat 
## # A tibble: 40 x 7
##        X1      X2     X3 D1       D2    D3  XNA1
##     <dbl>   <dbl>  <dbl> <fct> <int> <dbl> <dbl>
##  1 -0.543 -1.91   -0.177 World     1   0.3    NA
##  2  1.21   1.18    0.402 Hello     0   2.3    NA
##  3  1.16  -1.66   -0.732 Hello     0   2.3    NA
##  4  0.700 -0.464   0.830 Hello     0   0.3    NA
##  5  1.59  -1.12   -1.21  Hello     0   0.3    NA
##  6  0.558 -0.751  -1.05  World     0   0.3    NA
##  7 -1.28   2.09    1.44  World     0   1.3    NA
##  8 -0.573  0.0174 -1.02  Hello     0   1.3    NA
##  9 -1.22  -1.29    0.412 Hello     0   2.3    NA
## 10 -0.473 -1.64   -0.381 World     1   1.3    NA
## # ... with 30 more rows
…
We can use dplyr functions select, filter and mutate directly on the treeplyrdata object. The select function allows you to choose which columns you want in the dataset. Any number of columns can be specified:

select(td, X1, D1)

## $phy 
## 
## Phylogenetic tree with 40 tips and 39 internal nodes.
## 
## Tip labels:
##  s1, s2, s3, s4, s5, s6, ...
## 
## Rooted; includes branch lengths.
## 
## $dat 
## # A tibble: 40 x 2
##        X1 D1   
##     <dbl> <fct>
##  1 -0.543 World
##  2  1.21  Hello
##  3  1.16  Hello
##  4  0.700 Hello
##  5  1.59  Hello
##  6  0.558 World
##  7 -1.28  World
##  8 -0.573 Hello
##  9 -1.22  Hello
## 10 -0.473 World
## # ... with 30 more rows

select(td, 1:3)

## $phy 
## 
## Phylogenetic tree with 40 tips and 39 internal nodes.
## 
## Tip labels:
##  s1, s2, s3, s4, s5, s6, ...
## 
## Rooted; includes branch lengths.
## 
## $dat 
## # A tibble: 40 x 3
##        X1      X2     X3
##     <dbl>   <dbl>  <dbl>
##  1 -0.543 -1.91   -0.177
##  2  1.21   1.18    0.402
##  3  1.16  -1.66   -0.732
##  4  0.700 -0.464   0.830
##  5  1.59  -1.12   -1.21 
##  6  0.558 -0.751  -1.05 
##  7 -1.28   2.09    1.44 
##  8 -0.573  0.0174 -1.02 
##  9 -1.22  -1.29    0.412
## 10 -0.473 -1.64   -0.381
## # ... with 30 more rows

select(td, 1, 4, 6)

## $phy 
## 
## Phylogenetic tree with 40 tips and 39 internal nodes.
## 
## Tip labels:
##  s1, s2, s3, s4, s5, s6, ...
## 
## Rooted; includes branch lengths.
## 
## $dat 
## # A tibble: 40 x 3
##        X1 D1       D3
##     <dbl> <fct> <dbl>
##  1 -0.543 World   0.3
##  2  1.21  Hello   2.3
##  3  1.16  Hello   2.3
##  4  0.700 Hello   0.3
##  5  1.59  Hello   0.3
##  6  0.558 World   0.3
##  7 -1.28  World   1.3
##  8 -0.573 Hello   1.3
##  9 -1.22  Hello   2.3
## 10 -0.473 World   1.3
## # ... with 30 more rows
…
The function mutate adds a new variable to the dataset. It may be a transformation of one or more existing variables. For example, we may wish to log transform a variable, or average two or more variables.

mutate(td, Xall = (X1+X2+X3)/3, D1.binary = as.numeric(D1)-1)

## $phy 
## 
## Phylogenetic tree with 40 tips and 39 internal nodes.
## 
## Tip labels:
##  s1, s2, s3, s4, s5, s6, ...
## 
## Rooted; includes branch lengths.
## 
## $dat 
## # A tibble: 40 x 9
##        X1      X2     X3 D1       D2    D3  XNA1   Xall D1.binary
##     <dbl>   <dbl>  <dbl> <fct> <int> <dbl> <dbl>  <dbl>     <dbl>
##  1 -0.543 -1.91   -0.177 World     1   0.3    NA -0.878         1
##  2  1.21   1.18    0.402 Hello     0   2.3    NA  0.929         0
##  3  1.16  -1.66   -0.732 Hello     0   2.3    NA -0.412         0
##  4  0.700 -0.464   0.830 Hello     0   0.3    NA  0.356         0
##  5  1.59  -1.12   -1.21  Hello     0   0.3    NA -0.246         0
##  6  0.558 -0.751  -1.05  World     0   0.3    NA -0.413         1
##  7 -1.28   2.09    1.44  World     0   1.3    NA  0.751         1
##  8 -0.573  0.0174 -1.02  Hello     0   1.3    NA -0.524         0
##  9 -1.22  -1.29    0.412 Hello     0   2.3    NA -0.700         0
## 10 -0.473 -1.64   -0.381 World     1   1.3    NA -0.832         1
## # ... with 30 more rows
…
mytraits <- c('X1', 'D1')
select(td, all_of(mytraits))

## $phy 
## 
## Phylogenetic tree with 40 tips and 39 internal nodes.
## 
## Tip labels:
##  s1, s2, s3, s4, s5, s6, ...
## 
## Rooted; includes branch lengths.
## 
## $dat 
## # A tibble: 40 x 2
##        X1 D1   
##     <dbl> <fct>
##  1 -0.543 World
##  2  1.21  Hello
##  3  1.16  Hello
##  4  0.700 Hello
##  5  1.59  Hello
##  6  0.558 World
##  7 -1.28  World
##  8 -0.573 Hello
##  9 -1.22  Hello
## 10 -0.473 World
## # ... with 30 more rows
…
treeplyr is mostly just a wrapper that passes on functions to dplyr, so most of the dplyr functionality is still there. All treeplyr does is make sure the tree and data stay matched through the course of your data manipulations. In other words, you can still combine select, mutate, and filter with lots of other nice dplyr functions. Here are some examples:

select(td, starts_with("D"))

## $phy 
## 
## Phylogenetic tree with 40 tips and 39 internal nodes.
## 
## Tip labels:
##  s1, s2, s3, s4, s5, s6, ...
## 
## Rooted; includes branch lengths.
## 
## $dat 
## # A tibble: 40 x 3
##    D1       D2    D3
##    <fct> <int> <dbl>
##  1 World     1   0.3
##  2 Hello     0   2.3
##  3 Hello     0   2.3
##  4 Hello     0   0.3
##  5 Hello     0   0.3
##  6 World     0   0.3
##  7 World     0   1.3
##  8 Hello     0   1.3
##  9 Hello     0   2.3
## 10 World     1   1.3
## # ... with 30 more rows

select(td, ends_with("1"))

## $phy 
## 
## Phylogenetic tree with 40 tips and 39 internal nodes.
## 
## Tip labels:
##  s1, s2, s3, s4, s5, s6, ...
## 
## Rooted; includes branch lengths.
## 
## $dat 
## # A tibble: 40 x 3
##        X1 D1     XNA1
##     <dbl> <fct> <dbl>
##  1 -0.543 World    NA
##  2  1.21  Hello    NA
##  3  1.16  Hello    NA
##  4  0.700 Hello    NA
##  5  1.59  Hello    NA
##  6  0.558 World    NA
##  7 -1.28  World    NA
##  8 -0.573 Hello    NA
##  9 -1.22  Hello    NA
## 10 -0.473 World    NA
## # ... with 30 more rows

select(td, matches("NA"))

## $phy 
## 
## Phylogenetic tree with 40 tips and 39 internal nodes.
## 
## Tip labels:
##  s1, s2, s3, s4, s5, s6, ...
## 
## Rooted; includes branch lengths.
## 
## $dat 
## # A tibble: 40 x 1
##     XNA1
##    <dbl>
##  1    NA
##  2    NA
##  3    NA
##  4    NA
##  5    NA
##  6    NA
##  7    NA
##  8    NA
##  9    NA
## 10    NA
## # ... with 30 more rows

select(td, contains("NA"))

## $phy 
## 
## Phylogenetic tree with 40 tips and 39 internal nodes.
## 
## Tip labels:
##  s1, s2, s3, s4, s5, s6, ...
## 
## Rooted; includes branch lengths.
## 
## $dat 
## # A tibble: 40 x 1
##     XNA1
##    <dbl>
##  1    NA
##  2    NA
##  3    NA
##  4    NA
##  5    NA
##  6    NA
##  7    NA
##  8    NA
##  9    NA
## 10    NA
## # ... with 30 more rows

select(td, which(sapply(td$dat, type_sum)=="int"))

## $phy 
## 
## Phylogenetic tree with 40 tips and 39 internal nodes.
## 
## Tip labels:
##  s1, s2, s3, s4, s5, s6, ...
## 
## Rooted; includes branch lengths.
## 
## $dat 
## # A tibble: 40 x 1
##       D2
##    <int>
##  1     1
##  2     0
##  3     0
##  4     0
##  5     0
##  6     0
##  7     0
##  8     0
##  9     0
## 10     1
## # ... with 30 more rows
Or dropping columns:

select(td, -matches("NA"))

## $phy 
## 
## Phylogenetic tree with 40 tips and 39 internal nodes.
## 
## Tip labels:
##  s1, s2, s3, s4, s5, s6, ...
## 
## Rooted; includes branch lengths.
## 
## $dat 
## # A tibble: 40 x 6
##        X1      X2     X3 D1       D2    D3
##     <dbl>   <dbl>  <dbl> <fct> <int> <dbl>
##  1 -0.543 -1.91   -0.177 World     1   0.3
##  2  1.21   1.18    0.402 Hello     0   2.3
##  3  1.16  -1.66   -0.732 Hello     0   2.3
##  4  0.700 -0.464   0.830 Hello     0   0.3
##  5  1.59  -1.12   -1.21  Hello     0   0.3
##  6  0.558 -0.751  -1.05  World     0   0.3
##  7 -1.28   2.09    1.44  World     0   1.3
##  8 -0.573  0.0174 -1.02  Hello     0   1.3
##  9 -1.22  -1.29    0.412 Hello     0   2.3
## 10 -0.473 -1.64   -0.381 World     1   1.3
## # ... with 30 more rows

select(td, -starts_with("X"))

## $phy 
## 
## Phylogenetic tree with 40 tips and 39 internal nodes.
## 
## Tip labels:
##  s1, s2, s3, s4, s5, s6, ...
## 
## Rooted; includes branch lengths.
## 
## $dat 
## # A tibble: 40 x 3
##    D1       D2    D3
##    <fct> <int> <dbl>
##  1 World     1   0.3
##  2 Hello     0   2.3
##  3 Hello     0   2.3
##  4 Hello     0   0.3
##  5 Hello     0   0.3
##  6 World     0   0.3
##  7 World     0   1.3
##  8 Hello     0   1.3
##  9 Hello     0   2.3
## 10 World     1   1.3
## # ... with 30 more rows
…
